%YAML 1.1
%TAG !u! tag:unity3d.com,2011:
--- !u!114 &11400000
MonoBehaviour:
  m_ObjectHideFlags: 0
  m_CorrespondingSourceObject: {fileID: 0}
  m_PrefabInstance: {fileID: 0}
  m_PrefabAsset: {fileID: 0}
  m_GameObject: {fileID: 0}
  m_Enabled: 1
  m_EditorHideFlags: 0
  m_Script: {fileID: 11500000, guid: 0e9ec90a8a8cdd24fb5514560f1c6c7e, type: 3}
  m_Name: Level1
  m_EditorClassIdentifier: 
  _data:
    FieldSize: {x: 5, y: 5}
    InitialPosition: {x: 0, y: 0}
    _fieldImages: []
  _decoder: {fileID: 0}
  _RequiredLevel: {fileID: 0}
